<?xml version="1.0" standalone="no"?>
<!DOCTYPE svg PUBLIC "-//W3C//DTD SVG 20010904//EN"
 "http://www.w3.org/TR/2001/REC-SVG-20010904/DTD/svg10.dtd">
<svg version="1.0" xmlns="http://www.w3.org/2000/svg"
 width="16.000000pt" height="16.000000pt" viewBox="0 0 16.000000 16.000000"
 preserveAspectRatio="xMidYMid meet">
<metadata>
Created by potrace 1.11, written by Peter Selinger 2001-2013
</metadata>
<g transform="translate(0.000000,16.000000) scale(0.006154,-0.006154)"
fill="#000000" stroke="none">
<path d="M0 2173 l0 -73 84 0 c111 0 140 -11 166 -65 20 -42 20 -51 18 -746
-3 -681 -4 -705 -23 -737 -24 -40 -63 -52 -167 -52 l-78 0 0 -72 0 -73 357 1
358 1 3 71 3 72 -46 1 c-25 1 -48 2 -52 3 -5 1 -22 5 -39 10 -37 8 -68 39 -84
81 -8 22 -12 210 -11 665 0 349 0 651 1 670 l1 35 14 -35 c39 -102 357 -943
420 -1110 40 -107 78 -206 83 -220 6 -14 27 -70 47 -125 21 -55 43 -105 50
-110 14 -12 184 -10 195 2 4 4 28 69 54 143 26 74 51 144 56 155 5 11 31 83
58 160 28 77 97 271 155 430 58 160 137 381 177 492 40 111 75 201 79 199 7
-5 5 -1310 -2 -1348 -14 -69 -39 -87 -138 -95 l-69 -6 0 -68 c0 -59 3 -69 18
-70 9 0 217 -1 462 -2 l445 0 3 70 3 71 -95 4 c-109 4 -141 19 -162 81 -17 49
-19 1376 -2 1431 21 67 47 81 159 84 l99 4 0 69 c0 48 -4 69 -12 70 -87 6
-801 0 -808 -7 -5 -5 -65 -166 -135 -359 -69 -192 -142 -393 -161 -445 -20
-52 -61 -165 -91 -250 -83 -232 -71 -215 -98 -145 -32 82 -311 819 -392 1035
l-66 175 -418 0 -419 0 0 -72z"/>
</g>
</svg>
